{
	"info": {
		"_postman_id": "57b8db67-43f9-4d37-b0f3-2e1ace20eeea",
		"name": "Interstellar Construction",
		"description": "Service responsible of generating images based on satellite data.",
		"schema": "https://schema.getpostman.com/json/collection/v2.1.0/collection.json",
		"_exporter_id": "7968494"
	},
	"item": [
		{
			"name": "Generate Image Endpoint",
			"item": [
				{
					"name": "Generate Satellite Image",
					"event": [
						{
							"listen": "test",
							"script": {
								"exec": [
									"// Validate the http status code is valid.",
									"pm.test(\"Generate satellite image response is 200\", function () {",
									"    pm.response.to.have.status(200);",
									"});"
								],
								"type": "text/javascript"
							}
						}
					],
					"request": {
						"method": "POST",
						"header": [],
						"body": {
							"mode": "raw",
							"raw": "{\n\t\"utmZone\": 33,\n\t\"latitudeBand\": \"U\",\n\t\"gridSquare\": \"UP\",\n\t\"date\": \"2018-08-04\",\n\t\"channelMap\": \"visible\"\n}",
							"options": {
								"raw": {
									"language": "json"
								}
							}
						},
						"url": {
							"raw": "http://{{image_host}}/generate-image",
							"protocol": "http",
							"host": [
								"{{image_host}}"
							],
							"path": [
								"generate-image"
							]
						},
						"description": "Retrieves the image for the given grid reference request."
					},
					"response": []
				}
			],
			"description": "Supported operations to create images based on satellite data."
		}
	]
}